<svg xmlns="http://www.w3.org/2000/svg" width="72" height="72" viewBox="0 0 72 72">
    <g fill="none" fill-rule="evenodd">
        <g>
            <g>
                <g>
                    <path fill="#FFF" d="M5.197 26.292L9.208 11.281 51.011 11.281 42.502 45.744 0 45.744 3.564 32.405" transform="translate(-159 -448) translate(159 448) translate(2 6)"/>
                    <g>
                        <path stroke="#000" stroke-linecap="round" stroke-linejoin="round" stroke-width="3" d="M5.197 26.292L9.208 11.281 51.011 11.281 42.502 45.744 0 45.744 3.564 32.405" transform="translate(-159 -448) translate(159 448) translate(2 6)"/>
                        <path fill="#FFF" d="M18.774 45.744c0 3.359-2.723 6.082-6.082 6.082-3.358 0-6.081-2.723-6.081-6.082 0-3.358 2.723-6.082 6.08-6.082 3.36 0 6.083 2.724 6.083 6.082" transform="translate(-159 -448) translate(159 448) translate(2 6)"/>
                        <path stroke="#000" stroke-linecap="round" stroke-linejoin="round" stroke-width="3" d="M18.774 45.744c0 3.359-2.723 6.082-6.082 6.082-3.358 0-6.081-2.723-6.081-6.082 0-3.358 2.723-6.082 6.08-6.082 3.36 0 6.083 2.724 6.083 6.082z" transform="translate(-159 -448) translate(159 448) translate(2 6)"/>
                        <path fill="#FFF" d="M47.749 24.458L61.669 24.458 68.72 36.96 66.719 45.744 42.502 45.744z" transform="translate(-159 -448) translate(159 448) translate(2 6)"/>
                        <path stroke="#000" stroke-linecap="round" stroke-linejoin="round" stroke-width="3" d="M47.749 24.458L61.669 24.458 68.72 36.96 66.719 45.744 42.502 45.744z" transform="translate(-159 -448) translate(159 448) translate(2 6)"/>
                        <path fill="#FFF" d="M59.117 45.744c0 3.359-2.723 6.082-6.082 6.082-3.358 0-6.081-2.723-6.081-6.082 0-3.358 2.723-6.082 6.08-6.082 3.36 0 6.083 2.724 6.083 6.082" transform="translate(-159 -448) translate(159 448) translate(2 6)"/>
                        <path stroke="#000" stroke-linecap="round" stroke-linejoin="round" stroke-width="3" d="M59.117 45.744c0 3.359-2.723 6.082-6.082 6.082-3.358 0-6.081-2.723-6.081-6.082 0-3.358 2.723-6.082 6.08-6.082 3.36 0 6.083 2.724 6.083 6.082z" transform="translate(-159 -448) translate(159 448) translate(2 6)"/>
                        <path stroke="#EB2127" stroke-linecap="round" stroke-linejoin="round" stroke-width="2" d="M9.224 59.038L28.325 59.038M16.829.5L34.748.5M0 26.947L9.627 26.947" transform="translate(-159 -448) translate(159 448) translate(2 6)"/>
                    </g>
                </g>
            </g>
        </g>
    </g>
</svg>
