<svg xmlns="http://www.w3.org/2000/svg" width="72" height="73" viewBox="0 0 72 73">
    <g fill="none" fill-rule="evenodd" stroke-linecap="round" stroke-linejoin="round">
        <g stroke-width="3">
            <g>
                <g>
                    <path stroke="#EB2127" d="M45.627 52.95c9.773-4.253 16.606-13.996 16.606-25.334C62.233 12.364 49.87 0 34.618 0 19.366 0 7.003 12.364 7.003 27.616c0 2.09.25 3.603.689 5.56" transform="translate(-558 -961) translate(558 961.333) translate(3 4)"/>
                    <path stroke="#000" d="M9.745 56.255H1.794C.803 56.255 0 55.452 0 54.461v-19.49c0-.992.803-1.795 1.794-1.795h7.951c.991 0 1.794.803 1.794 1.794v19.491c0 .991-.803 1.794-1.794 1.794z" transform="translate(-558 -961) translate(558 961.333) translate(3 4)"/>
                    <path stroke="#000" d="M11.539 37.353h10.143c1.54 0 3.065.295 4.494.87l11.5 3.666c2.533 1.02 3.715 3.935 2.606 6.43-1.024 2.306-3.655 3.431-6.03 2.58l-8.288-2.968 13.297 4.757c1.997.714 4.149.882 6.233.485l14.822-2.822c2.349-.473 4.68.88 5.439 3.151.85 2.554-.59 5.303-3.173 6.057l-12.423 3.344c-4.42 1.29-9.144 1.05-13.411-.682l-19.44-7.889h-5.77V37.353z" transform="translate(-558 -961) translate(558 961.333) translate(3 4)"/>
                    <path stroke="#EB2127" d="M26.208 12.47s5.057-1.686 5.057 4.213c0 5.9-2.53 16.013 5.055 16.013 8.428 0 8.428-12.642 4.214-12.642M26.629 20.055L34.788 20.055" transform="translate(-558 -961) translate(558 961.333) translate(3 4)"/>
                    <path stroke="#EB2127" d="M41.798 21.319c0 .698-.565 1.264-1.264 1.264-.698 0-1.263-.566-1.263-1.264 0-.698.565-1.264 1.263-1.264.699 0 1.264.566 1.264 1.264z" transform="translate(-558 -961) translate(558 961.333) translate(3 4)"/>
                </g>
            </g>
        </g>
    </g>
</svg>
