<svg xmlns="http://www.w3.org/2000/svg" width="72" height="73" viewBox="0 0 72 73">
    <g fill="none" fill-rule="evenodd">
        <g>
            <g>
                <g>
                    <g>
                        <path fill="#FFF" d="M1.235 27.787C.436 25.582 0 23.203 0 20.722 0 9.278 9.277 0 20.721 0c11.446 0 20.723 9.278 20.723 20.722 0 2.481-.437 4.86-1.235 7.065" transform="translate(-960 -805) translate(960 805.333) translate(3 3) translate(12.637)"/>
                        <path stroke="#EB2127" stroke-linecap="round" stroke-linejoin="round" stroke-width="3" d="M1.235 27.787C.436 25.582 0 23.203 0 20.722 0 9.278 9.277 0 20.721 0c11.446 0 20.723 9.278 20.723 20.722 0 2.481-.437 4.86-1.235 7.065" transform="translate(-960 -805) translate(960 805.333) translate(3 3) translate(12.637)"/>
                    </g>
                    <path stroke="#000" stroke-linecap="round" stroke-linejoin="round" stroke-width="3" d="M5.571 27.787L32.87 27.787 27.431 39.856 0 36.839zM60.061 27.787L32.87 27.787 40.151 39.856 65.61 36.839z" transform="translate(-960 -805) translate(960 805.333) translate(3 3)"/>
                    <path stroke="#000" stroke-linecap="round" stroke-linejoin="round" stroke-width="3" d="M4.558 37.844L4.558 58.844 33.151 65 61.996 57.96 61.996 37.844M33.557 40.359L33.557 64.498" transform="translate(-960 -805) translate(960 805.333) translate(3 3)"/>
                    <path stroke="#EB2127" stroke-linecap="round" stroke-linejoin="round" stroke-width="3" d="M25.978 16.802L30.655 20.156 40.801 9.615M5.557 22.123L14.011 27.131 19.054 19.599" transform="translate(-960 -805) translate(960 805.333) translate(3 3)"/>
                </g>
            </g>
        </g>
    </g>
</svg>
